\relax 
\providecommand\hyper@newdestlabel[2]{}
\FN@pp@footnotehinttrue 
\FN@pp@footnotehinttrue 
\citation{JC:GJKW07}
\citation{JC:GJKW07}
\citation{JC:GJKW07}
\citation{JC:GJKW07}
\citation{JC:GJKW07}
\citation{JC:GJKW07}
\citation{JC:GJKW07}
\@writefile{toc}{\contentsline {chapter}{\numberline {5}Machine-checked verification of \textsf  {GJKW}\xspace  }{89}{chapter.5}\protected@file@percent }
\@writefile{lof}{\addvspace {10\p@ }}
\@writefile{lot}{\addvspace {10\p@ }}
\newlabel{chap:chap03}{{5}{89}{Machine-checked verification of \GJKW }{chapter.5}{}}
\@writefile{toc}{\contentsline {section}{\numberline {5.1}Introduction}{89}{section.5.1}\protected@file@percent }
\newlabel{sec:introduction}{{5.1}{89}{Introduction}{section.5.1}{}}
\citation{JC:GJKW07}
\citation{JC:GJKW07}
\citation{EPRINT:Shoup04}
\citation{JC:GJKW07}
\citation{SaraFran21}
\@writefile{lof}{\contentsline {figure}{\numberline {5.1}{\ignorespaces Compute Relevant Queries }}{90}{figure.5.1}\protected@file@percent }
\newlabel{fig:CompRel}{{5.1}{90}{Compute Relevant Queries}{figure.5.1}{}}
\citation{EC:BelRog96}
\citation{EC:BelRog96}
\citation{CCS:BelRog93}
\citation{C:Coron00}
\citation{C:HofKil08}
\citation{CCS:KatWan03}
\citation{EC:GohJar03}
\citation{C:ChaPed92}
\citation{CMS:JakSch99}
\citation{EC:GohJar03}
\citation{C:Chevallier-Mames05}
\citation{chevallier22}
\citation{JC:GJKW07}
\citation{EC:GohJar03}
\citation{C:ChaPed92}
\citation{CCS:KatWan03}
\citation{jakobsson99}
\citation{chevallier05}
\@writefile{toc}{\contentsline {subsection}{\numberline {5.1.1}Contribution}{91}{subsection.5.1.1}\protected@file@percent }
\@writefile{toc}{\contentsline {subsection}{\numberline {5.1.2}Related Work}{91}{subsection.5.1.2}\protected@file@percent }
\@writefile{toc}{\contentsline {subsection}{\numberline {5.1.3}Outline}{92}{subsection.5.1.3}\protected@file@percent }
\@writefile{toc}{\contentsline {section}{\numberline {5.2}\textsf  {GJKW}\xspace  signature scheme}{92}{section.5.2}\protected@file@percent }
\@writefile{lof}{\contentsline {figure}{\numberline {5.2}{\ignorespaces The \textsf  {GJKW}\xspace  signature scheme based on \textsf  {CDH}\xspace  , parameterized by two random oracles \(\EuScript  {H}\xspace   : \EuScript  {M}\times \mathsf  {bits} \rightarrow \mathbb  {G}\) and \(\EuScript  {G}\xspace   : \mathbb  {G}^5 \rightarrow \F \).}}{93}{figure.5.2}\protected@file@percent }
\newlabel{fig:GJKW}{{5.2}{93}{The \GJKW signature scheme based on \CDH , parameterized by two random oracles \(\scheme {H} : \msgs \times \var {bits} \rightarrow \G \) and \(\scheme {G} : \G ^5 \rightarrow \F \)}{figure.5.2}{}}
\@writefile{toc}{\contentsline {subsection}{\numberline {5.2.1}\textsf  {GJKW}\xspace  in \textsf  {EasyCrypt}\xspace  format}{93}{subsection.5.2.1}\protected@file@percent }
\@writefile{lol}{\contentsline {lstlisting}{\numberline {5.1}{Definition of \textsf  {GJKW}\xspace  scheme in \textsf  {EasyCrypt}\xspace  }}{93}{lstlisting.5.1}\protected@file@percent }
\newlabel{fig:Def-ec-GJKW}{{5.1}{93}{\GJKW in \EasyCrypt format}{lstlisting.5.1}{}}
\@writefile{lol}{\contentsline {lstlisting}{\numberline {5.2}{Sig-Scheme is an abstract module}}{94}{lstlisting.5.2}\protected@file@percent }
\newlabel{fig:ec-sigScheme}{{5.2}{94}{\GJKW in \EasyCrypt format}{lstlisting.5.2}{}}
\@writefile{toc}{\contentsline {section}{\numberline {5.3}Security}{96}{section.5.3}\protected@file@percent }
\@writefile{lol}{\contentsline {lstlisting}{\numberline {5.3}{The definition of \textsf  {EUF\textrm  {-}CMA}\xspace  experiment in \textsf  {EasyCrypt}\xspace  }}{96}{lstlisting.5.3}\protected@file@percent }
\newlabel{fig:ec-eufcma}{{5.3}{96}{Security}{lstlisting.5.3}{}}
\@writefile{lol}{\contentsline {lstlisting}{\numberline {5.4}{The definition of \textsf  {CDH}\xspace  experiment in \textsf  {EasyCrypt}\xspace  }}{97}{lstlisting.5.4}\protected@file@percent }
\newlabel{fig:ec-cdh}{{5.4}{97}{Security}{lstlisting.5.4}{}}
\newlabel{thm:gjkw-security}{{14}{97}{Security of \GJKW }{theorem.14}{}}
\@writefile{lof}{\contentsline {figure}{\numberline {5.3}{\ignorespaces The reduction \(\ensuremath  {\EuScript  {A}}\) from \textsf  {CDH}\xspace  . }}{98}{figure.5.3}\protected@file@percent }
\newlabel{fig:GJKW-reduction}{{5.3}{98}{The reduction \(\adv \) from \CDH }{figure.5.3}{}}
\@writefile{toc}{\contentsline {section}{\numberline {5.4}Formalisation}{99}{section.5.4}\protected@file@percent }
\@writefile{toc}{\contentsline {subsection}{\numberline {5.4.1}Proof Overview}{99}{subsection.5.4.1}\protected@file@percent }
\@writefile{lof}{\contentsline {figure}{\numberline {5.4}{\ignorespaces  Overview of the proofs }}{100}{figure.5.4}\protected@file@percent }
\newlabel{fig:ec-Diagram}{{5.4}{100}{Overview of the proofs}{figure.5.4}{}}
\@writefile{toc}{\contentsline {subsection}{\numberline {5.4.2}The Sequence of Games}{100}{subsection.5.4.2}\protected@file@percent }
\@writefile{toc}{\contentsline {subsubsection}{[\(\textsf  {EUF\textrm  {-}CMA}\xspace  (\EuScript  {H}\xspace  ,\EuScript  {G}\xspace  ,\textsf  {GJKW}\xspace  , \EuScript  {F})\)]}{101}{section*.30}\protected@file@percent }
\@writefile{toc}{\contentsline {subsubsection}{[\(Game_0^{\textsf  {GJKW}\xspace  }(\EuScript  {H}\xspace  ,\EuScript  {G}\xspace  ,\EuScript  {S}\xspace  )\)]}{101}{section*.31}\protected@file@percent }
\@writefile{lof}{\contentsline {figure}{\numberline {5.5}{\ignorespaces \( \mathsf  {Game}^{\textsf  {GJKW}\xspace  }_{0}({\EuScript  {H}\xspace  ,\EuScript  {G}\xspace  ,\EuScript  {S}\xspace  })\)  }}{101}{figure.5.5}\protected@file@percent }
\newlabel{fig:gjkw-G0}{{5.5}{101}{\( \Game {\GJKW }{0}{\scheme {H},\scheme {G},\scheme {S}}\)}{figure.5.5}{}}
\newlabel{lem:gjkw-refactoring}{{15}{101}{}{theorem.15}{}}
\@writefile{lol}{\contentsline {lstlisting}{\numberline {5.5}{\(\mathsf  {Game}^{\textsf  {GJKW}\xspace  }_{0}({\EuScript  {F}})\) in \textsf  {EasyCrypt}\xspace  }}{102}{lstlisting.5.5}\protected@file@percent }
\newlabel{fig:ec-G0-euf}{{5.5}{102}{[\(Game_0^{\GJKW }(\scheme {H},\scheme {G},\scheme {S})\)]}{lstlisting.5.5}{}}
\@writefile{lol}{\contentsline {lstlisting}{\numberline {5.6}{\( \mathsf  {Game}^{\textsf  {GJKW}\xspace  }_{0}({\EuScript  {H}\xspace  ,\EuScript  {G}\xspace  ,\EuScript  {S}\xspace  })\) in \textsf  {EasyCrypt}\xspace  }}{102}{lstlisting.5.6}\protected@file@percent }
\newlabel{fig:ec-G0}{{5.6}{102}{[\(Game_0^{\GJKW }(\scheme {H},\scheme {G},\scheme {S})\)]}{lstlisting.5.6}{}}
\@writefile{toc}{\contentsline {subsubsection}{1st Simplification}{103}{section*.32}\protected@file@percent }
\@writefile{toc}{\contentsline {subsubsection}{[\(Game_{bad}^{\textsf  {GJKW}\xspace  }(\EuScript  {H}\xspace  ,\EuScript  {G}\xspace  ,\EuScript  {S}\xspace  )\) : bad] (failure event)}{104}{section*.33}\protected@file@percent }
\newlabel{lem:gjkw-bad}{{16}{104}{bad}{theorem.16}{}}
\@writefile{lof}{\contentsline {figure}{\numberline {5.6}{\ignorespaces \(Game_0^{\textsf  {GJKW}\xspace  }(\EuScript  {H}\xspace  ,\EuScript  {G}\xspace  ,\EuScript  {S}\xspace  ) \) and \(Game_{bad}^{\textsf  {GJKW}\xspace  }(\EuScript  {H}\xspace  ,\EuScript  {G}\xspace  ,\EuScript  {S}\xspace  ) \)}}{105}{figure.5.6}\protected@file@percent }
\newlabel{fig:G0-GoBad}{{5.6}{105}{\(Game_0^{\GJKW }(\scheme {H},\scheme {G},\scheme {S}) \) and \(Game_{bad}^{\GJKW }(\scheme {H},\scheme {G},\scheme {S}) \)}{figure.5.6}{}}
\@writefile{toc}{\contentsline {subsubsection}{Failure Event Lemma (fel tactic)}{106}{section*.34}\protected@file@percent }
\@writefile{lol}{\contentsline {lstlisting}{\numberline {5.7}{fel tactic in \textsf  {EasyCrypt}\xspace  }}{107}{lstlisting.5.7}\protected@file@percent }
\newlabel{fig:ec-fel}{{5.7}{107}{Failure Event Lemma (fel tactic)}{lstlisting.5.7}{}}
\@writefile{lol}{\contentsline {lstlisting}{\numberline {5.8}{\(Game0_{bad}^{\textsf  {GJKW}\xspace  }(\EuScript  {F})\) in \textsf  {EasyCrypt}\xspace  }}{107}{lstlisting.5.8}\protected@file@percent }
\newlabel{fig:ec-G0-bad}{{5.8}{107}{Failure Event Lemma (fel tactic)}{lstlisting.5.8}{}}
\@writefile{toc}{\contentsline {subsubsection}{2nd Simplification}{108}{section*.35}\protected@file@percent }
\newlabel{lem:2CDH-gjkw}{{17}{109}{Unpredictability}{theorem.17}{}}
\@writefile{lol}{\contentsline {lstlisting}{\numberline {5.9}{\(Game\prime _0^\textsf  {GJKW}\xspace  (\EuScript  {H}\xspace  , \EuScript  {G}\xspace  , \EuScript  {S}\xspace  )\) in \textsf  {EasyCrypt}\xspace  }}{109}{lstlisting.5.9}\protected@file@percent }
\newlabel{ls:ec-Game0'}{{5.9}{109}{2nd Simplification}{lstlisting.5.9}{}}
\@writefile{toc}{\contentsline {section}{\numberline {5.5}Formal Steps}{110}{section.5.5}\protected@file@percent }
\@writefile{lol}{\contentsline {lstlisting}{\numberline {5.10}{Game equivalences in \textsf  {EasyCrypt}\xspace  }}{110}{lstlisting.5.10}\protected@file@percent }
\newlabel{ls:G0-G1}{{5.10}{110}{Formal Steps}{lstlisting.5.10}{}}
\@writefile{toc}{\contentsline {subsubsection}{Step 1: Refactorisation (\(Game_1^\textsf  {GJKW}\xspace  (\EuScript  {F})\) and \(Shim(O_0)^\textsf  {GJKW}\xspace  (\EuScript  {F})\))}{111}{section*.36}\protected@file@percent }
\@writefile{toc}{\contentsline {subsubsection}{3 Sub-Steps}{111}{section*.37}\protected@file@percent }
\@writefile{lol}{\contentsline {lstlisting}{\numberline {5.11}{Transformation of samplings in three sub-steps}}{111}{lstlisting.5.11}\protected@file@percent }
\newlabel{fig:ec-3sub-steps}{{5.11}{111}{3 Sub-Steps}{lstlisting.5.11}{}}
\@writefile{toc}{\contentsline {subsubsection}{[\(Shim(O_0)^{\textsf  {GJKW}\xspace  }(\EuScript  {H}\xspace  ,\EuScript  {G}\xspace  ,\EuScript  {S}\xspace  )\)]}{112}{section*.38}\protected@file@percent }
\@writefile{lol}{\contentsline {lstlisting}{\numberline {5.12}{Shim takes module Oracles as a parameter}}{112}{lstlisting.5.12}\protected@file@percent }
\newlabel{ls:gjkwShim0}{{5.12}{112}{[\(Shim(O_0)^{\GJKW }(\scheme {H},\scheme {G},\scheme {S})\)]}{lstlisting.5.12}{}}
\@writefile{lol}{\contentsline {lstlisting}{\numberline {5.13}{Shim takes module Oracles as a parameter}}{113}{lstlisting.5.13}\protected@file@percent }
\newlabel{ls:ec-Shim-oracle}{{5.13}{113}{[\(Shim(O_0)^{\GJKW }(\scheme {H},\scheme {G},\scheme {S})\)]}{lstlisting.5.13}{}}
\@writefile{toc}{\contentsline {subsubsection}{Step 2: Embedding and Simulation \((Shim(O_1)^\textsf  {GJKW}\xspace  (\EuScript  {H}\xspace  , \EuScript  {G}\xspace  ,CompRel))\)}{113}{section*.39}\protected@file@percent }
\@writefile{lof}{\contentsline {figure}{\numberline {5.7}{\ignorespaces The difference b/w \(Game_0^\textsf  {GJKW}\xspace  \) and \(Shim(O_0)^\textsf  {GJKW}\xspace  \)}}{114}{figure.5.7}\protected@file@percent }
\newlabel{fig:G1-Shim}{{5.7}{114}{The difference b/w \(Game_0^\GJKW \) and \(Shim(O_0)^\GJKW \)}{figure.5.7}{}}
\@writefile{toc}{\contentsline {subsubsection}{[\(Shim(O_1)^\textsf  {GJKW}\xspace  (\EuScript  {H}\xspace  , \EuScript  {G}\xspace  ,CompRel) \)]}{115}{section*.40}\protected@file@percent }
\@writefile{toc}{\contentsline {subsubsection}{Step 3: Reduction }{115}{section*.41}\protected@file@percent }
\@writefile{lof}{\contentsline {figure}{\numberline {5.8}{\ignorespaces The difference b/w \(Shim(O_0)^\textsf  {GJKW}\xspace  \) and \(Shim(O_1)^\textsf  {GJKW}\xspace  \)}}{116}{figure.5.8}\protected@file@percent }
\newlabel{fig:Shim-Shim1}{{5.8}{116}{The difference b/w \(Shim(O_0)^\GJKW \) and \(Shim(O_1)^\GJKW \)}{figure.5.8}{}}
\citation{JC:GJKW07}
\@writefile{toc}{\contentsline {section}{\numberline {5.6}Reflecting on the proof pattern}{117}{section.5.6}\protected@file@percent }
\citation{JC:GJKW07}
\@writefile{toc}{\contentsline {section}{\numberline {5.7}Lessons Learned}{119}{section.5.7}\protected@file@percent }
\FN@pp@footnotehinttrue 
\@setckpt{Chapter3/chapter3}{
\setcounter{page}{120}
\setcounter{equation}{0}
\setcounter{enumi}{3}
\setcounter{enumii}{0}
\setcounter{enumiii}{0}
\setcounter{enumiv}{0}
\setcounter{footnote}{0}
\setcounter{mpfootnote}{0}
\setcounter{nag@c}{22}
\setcounter{part}{0}
\setcounter{chapter}{5}
\setcounter{section}{7}
\setcounter{subsection}{0}
\setcounter{subsubsection}{0}
\setcounter{paragraph}{0}
\setcounter{subparagraph}{0}
\setcounter{figure}{8}
\setcounter{table}{0}
\setcounter{AM@survey}{0}
\setcounter{Item}{34}
\setcounter{Hfootnote}{4}
\setcounter{bookmark@seq@number}{0}
\setcounter{pp@next@reset}{5}
\setcounter{@fnserial}{4}
\setcounter{l@yercount}{0}
\setcounter{hdr@segments}{1}
\setcounter{lstnumber}{11}
\setcounter{parentequation}{0}
\setcounter{@pc@global@pc@cnt}{252}
\setcounter{@pc@global@pc@nestcnt}{0}
\setcounter{@spacecounter}{0}
\setcounter{pclinenumber}{0}
\setcounter{Hpclinenumber}{338}
\setcounter{@pclinenumber}{2034}
\setcounter{H@pclinenumber}{2034}
\setcounter{@pclinenumbertmp}{0}
\setcounter{pcgamecounter}{0}
\setcounter{Hpcgamecounter}{0}
\setcounter{pcrlinenumber}{0}
\setcounter{Hpcrlinenumber}{0}
\setcounter{@pcrlinenumbertmp}{0}
\setcounter{@pc@indentationlevel}{0}
\setcounter{pccolumncounter}{2}
\setcounter{@pc@remember}{0}
\setcounter{@bb@oracle@cnt}{0}
\setcounter{@bb@oracle@nestcnt}{0}
\setcounter{@bb@challenger@cnt}{0}
\setcounter{@bb@challenger@nestcnt}{0}
\setcounter{@bb@env@nestcnt}{0}
\setcounter{@pcsubprogcnt1}{0}
\setcounter{@pcrsubprogcnt1}{0}
\setcounter{@pcsubprogcnt2}{3}
\setcounter{@pcrsubprogcnt2}{0}
\setcounter{@pcsubprogcnt3}{0}
\setcounter{@pcrsubprogcnt3}{0}
\setcounter{@pcsubprogcnt4}{0}
\setcounter{@pcrsubprogcnt4}{0}
\setcounter{@pcsubprogcnt5}{0}
\setcounter{@pcrsubprogcnt5}{0}
\setcounter{@pcsubprogcnt6}{0}
\setcounter{@pcrsubprogcnt6}{0}
\setcounter{@pcsubprogcnt7}{0}
\setcounter{@pcrsubprogcnt7}{0}
\setcounter{@pcsubprogcnt8}{0}
\setcounter{@pcrsubprogcnt8}{0}
\setcounter{@pcsubprogcnt9}{0}
\setcounter{@pcrsubprogcnt9}{0}
\setcounter{@pcsubprogstep}{0}
\setcounter{pcstartgamecounter}{0}
\setcounter{theorem}{17}
\setcounter{defn}{18}
\setcounter{@todonotes@numberoftodonotes}{0}
\setcounter{section@level}{1}
\setcounter{lstlisting}{13}
}
