\relax 
\providecommand\hyper@newdestlabel[2]{}
\citation{EPRINT:Halevi05b}
\citation{C:BGHZ11}
\citation{bartheEC13}
\citation{POPL:BGZ09}
\citation{petcher15}
\citation{easycrypt13}
\citation{barthe11}
\citation{coq97}
\FN@pp@footnotehinttrue 
\@writefile{toc}{\contentsline {chapter}{\numberline {1}Introduction}{1}{chapter.1}\protected@file@percent }
\@writefile{lof}{\addvspace {10\p@ }}
\@writefile{lot}{\addvspace {10\p@ }}
\newlabel{chap:intro}{{1}{1}{Introduction}{chapter.1}{}}
\citation{EPRINT:Shoup04}
\citation{EC:GohJar03}
\citation{C:Chevallier-Mames05}
\citation{JC:GJKW07}
\citation{EC:GohJar03}
\citation{C:ChaPed92}
\citation{CMS:JakSch99}
\citation{JC:Schnorr91}
\citation{EC:GohJar03}
\citation{C:Chevallier-Mames05}
\@writefile{toc}{\contentsline {section}{\numberline {1.1}Aims and Contributions}{2}{section.1.1}\protected@file@percent }
\newlabel{aims/approach}{{1.1}{2}{Aims and Contributions}{section.1.1}{}}
\citation{C:Chevallier-Mames05}
\citation{EPRINT:Shoup04}
\citation{JC:GJKW07}
\@writefile{toc}{\contentsline {section}{\numberline {1.2}Thesis structure}{4}{section.1.2}\protected@file@percent }
\newlabel{Structure}{{1.2}{4}{Thesis structure}{section.1.2}{}}
\FN@pp@footnotehinttrue 
\@setckpt{Introduction/introduction}{
\setcounter{page}{6}
\setcounter{equation}{0}
\setcounter{enumi}{0}
\setcounter{enumii}{0}
\setcounter{enumiii}{0}
\setcounter{enumiv}{0}
\setcounter{footnote}{0}
\setcounter{mpfootnote}{0}
\setcounter{nag@c}{22}
\setcounter{part}{0}
\setcounter{chapter}{1}
\setcounter{section}{2}
\setcounter{subsection}{0}
\setcounter{subsubsection}{0}
\setcounter{paragraph}{0}
\setcounter{subparagraph}{0}
\setcounter{figure}{0}
\setcounter{table}{0}
\setcounter{AM@survey}{0}
\setcounter{Item}{0}
\setcounter{Hfootnote}{0}
\setcounter{bookmark@seq@number}{0}
\setcounter{pp@next@reset}{1}
\setcounter{@fnserial}{0}
\setcounter{l@yercount}{0}
\setcounter{hdr@segments}{0}
\setcounter{lstnumber}{1}
\setcounter{parentequation}{0}
\setcounter{@pc@global@pc@cnt}{0}
\setcounter{@pc@global@pc@nestcnt}{0}
\setcounter{@spacecounter}{0}
\setcounter{pclinenumber}{0}
\setcounter{Hpclinenumber}{0}
\setcounter{@pclinenumber}{0}
\setcounter{H@pclinenumber}{0}
\setcounter{@pclinenumbertmp}{0}
\setcounter{pcgamecounter}{0}
\setcounter{Hpcgamecounter}{0}
\setcounter{pcrlinenumber}{0}
\setcounter{Hpcrlinenumber}{0}
\setcounter{@pcrlinenumbertmp}{0}
\setcounter{@pc@indentationlevel}{0}
\setcounter{pccolumncounter}{2}
\setcounter{@pc@remember}{0}
\setcounter{@bb@oracle@cnt}{0}
\setcounter{@bb@oracle@nestcnt}{0}
\setcounter{@bb@challenger@cnt}{0}
\setcounter{@bb@challenger@nestcnt}{0}
\setcounter{@bb@env@nestcnt}{0}
\setcounter{@pcsubprogcnt1}{0}
\setcounter{@pcrsubprogcnt1}{0}
\setcounter{@pcsubprogcnt2}{0}
\setcounter{@pcrsubprogcnt2}{0}
\setcounter{@pcsubprogcnt3}{0}
\setcounter{@pcrsubprogcnt3}{0}
\setcounter{@pcsubprogcnt4}{0}
\setcounter{@pcrsubprogcnt4}{0}
\setcounter{@pcsubprogcnt5}{0}
\setcounter{@pcrsubprogcnt5}{0}
\setcounter{@pcsubprogcnt6}{0}
\setcounter{@pcrsubprogcnt6}{0}
\setcounter{@pcsubprogcnt7}{0}
\setcounter{@pcrsubprogcnt7}{0}
\setcounter{@pcsubprogcnt8}{0}
\setcounter{@pcrsubprogcnt8}{0}
\setcounter{@pcsubprogcnt9}{0}
\setcounter{@pcrsubprogcnt9}{0}
\setcounter{@pcsubprogstep}{0}
\setcounter{pcstartgamecounter}{0}
\setcounter{theorem}{0}
\setcounter{defn}{0}
\setcounter{@todonotes@numberoftodonotes}{0}
\setcounter{section@level}{1}
\setcounter{lstlisting}{0}
}
