\relax 
\providecommand\hyper@newdestlabel[2]{}
\@setckpt{Appendix1/appendix2}{
\setcounter{page}{127}
\setcounter{equation}{0}
\setcounter{enumi}{3}
\setcounter{enumii}{0}
\setcounter{enumiii}{0}
\setcounter{enumiv}{0}
\setcounter{footnote}{0}
\setcounter{mpfootnote}{0}
\setcounter{nag@c}{22}
\setcounter{part}{0}
\setcounter{chapter}{0}
\setcounter{section}{0}
\setcounter{subsection}{0}
\setcounter{subsubsection}{0}
\setcounter{paragraph}{0}
\setcounter{subparagraph}{0}
\setcounter{figure}{0}
\setcounter{table}{0}
\setcounter{AM@survey}{0}
\setcounter{Item}{34}
\setcounter{Hfootnote}{5}
\setcounter{bookmark@seq@number}{0}
\setcounter{pp@next@reset}{6}
\setcounter{@fnserial}{5}
\setcounter{l@yercount}{0}
\setcounter{hdr@segments}{1}
\setcounter{lstnumber}{11}
\setcounter{parentequation}{0}
\setcounter{@pc@global@pc@cnt}{252}
\setcounter{@pc@global@pc@nestcnt}{0}
\setcounter{@spacecounter}{0}
\setcounter{pclinenumber}{0}
\setcounter{Hpclinenumber}{338}
\setcounter{@pclinenumber}{2034}
\setcounter{H@pclinenumber}{2034}
\setcounter{@pclinenumbertmp}{0}
\setcounter{pcgamecounter}{0}
\setcounter{Hpcgamecounter}{0}
\setcounter{pcrlinenumber}{0}
\setcounter{Hpcrlinenumber}{0}
\setcounter{@pcrlinenumbertmp}{0}
\setcounter{@pc@indentationlevel}{0}
\setcounter{pccolumncounter}{2}
\setcounter{@pc@remember}{0}
\setcounter{@bb@oracle@cnt}{0}
\setcounter{@bb@oracle@nestcnt}{0}
\setcounter{@bb@challenger@cnt}{0}
\setcounter{@bb@challenger@nestcnt}{0}
\setcounter{@bb@env@nestcnt}{0}
\setcounter{@pcsubprogcnt1}{0}
\setcounter{@pcrsubprogcnt1}{0}
\setcounter{@pcsubprogcnt2}{3}
\setcounter{@pcrsubprogcnt2}{0}
\setcounter{@pcsubprogcnt3}{0}
\setcounter{@pcrsubprogcnt3}{0}
\setcounter{@pcsubprogcnt4}{0}
\setcounter{@pcrsubprogcnt4}{0}
\setcounter{@pcsubprogcnt5}{0}
\setcounter{@pcrsubprogcnt5}{0}
\setcounter{@pcsubprogcnt6}{0}
\setcounter{@pcrsubprogcnt6}{0}
\setcounter{@pcsubprogcnt7}{0}
\setcounter{@pcrsubprogcnt7}{0}
\setcounter{@pcsubprogcnt8}{0}
\setcounter{@pcrsubprogcnt8}{0}
\setcounter{@pcsubprogcnt9}{0}
\setcounter{@pcrsubprogcnt9}{0}
\setcounter{@pcsubprogstep}{0}
\setcounter{pcstartgamecounter}{0}
\setcounter{theorem}{17}
\setcounter{defn}{18}
\setcounter{@todonotes@numberoftodonotes}{0}
\setcounter{section@level}{1}
\setcounter{lstlisting}{0}
}
