\relax 
\providecommand\hyper@newdestlabel[2]{}
\citation{C:Shoup01}
\citation{EC:BelRog94}
\citation{ISC:Bellare97}
\citation{EPRINT:Shoup04}
\citation{EPRINT:BelRog04}
\citation{FOCS:Canetti01}
\citation{FC:Maurer10}
\FN@pp@footnotehinttrue 
\FN@pp@footnotehinttrue 
\@writefile{toc}{\contentsline {chapter}{\numberline {3}Transforming security proofs into semantic framework games}{39}{chapter.3}\protected@file@percent }
\@writefile{lof}{\addvspace {10\p@ }}
\@writefile{lot}{\addvspace {10\p@ }}
\newlabel{chap:chap2}{{3}{39}{Transforming security proofs into semantic framework games}{chapter.3}{}}
\@writefile{toc}{\contentsline {section}{\numberline {3.1}Introduction}{39}{section.3.1}\protected@file@percent }
\newlabel{sec:Chap2intro}{{3.1}{39}{Introduction}{section.3.1}{}}
\@writefile{toc}{\contentsline {section}{\numberline {3.2}Formalisms for Security Definitions}{40}{section.3.2}\protected@file@percent }
\@writefile{lof}{\contentsline {figure}{\numberline {3.1}{\ignorespaces \(\ensuremath  {\EuScript  {A}}\) calling program to subroutine}}{40}{figure.3.1}\protected@file@percent }
\newlabel{fig:subroutinecall}{{3.1}{40}{\(\adv \) calling program to subroutine}{figure.3.1}{}}
\@writefile{lof}{\contentsline {figure}{\numberline {3.2}{\ignorespaces Interaction b/w calling program and subroutine}}{41}{figure.3.2}\protected@file@percent }
\newlabel{fig:subroutineInt}{{3.2}{41}{Interaction b/w calling program and subroutine}{figure.3.2}{}}
\@writefile{toc}{\contentsline {section}{\numberline {3.3}The formal semantics of Programming language}{41}{section.3.3}\protected@file@percent }
\newlabel{sec:semantics}{{3.3}{41}{The formal semantics of Programming language}{section.3.3}{}}
\@writefile{toc}{\contentsline {subsection}{\numberline {3.3.1}Summary of Notation}{41}{subsection.3.3.1}\protected@file@percent }
\@writefile{toc}{\contentsline {subsection}{\numberline {3.3.2}Operational Semantics}{42}{subsection.3.3.2}\protected@file@percent }
\@writefile{toc}{\contentsline {subsubsection}{Rules for commands}{43}{section*.14}\protected@file@percent }
\@writefile{toc}{\contentsline {subsection}{\numberline {3.3.3}Denotational semantics}{43}{subsection.3.3.3}\protected@file@percent }
\@writefile{toc}{\contentsline {subsection}{\numberline {3.3.4}Axiomatic semantics}{43}{subsection.3.3.4}\protected@file@percent }
\citation{GolMic84}
\citation{FOCS:Yao82a}
\citation{JC:KilRog01}
\citation{EPRINT:BelRog04}
\@writefile{toc}{\contentsline {section}{\numberline {3.4}Game-based proofs}{44}{section.3.4}\protected@file@percent }
\citation{EPRINT:BelRog04}
\citation{EPRINT:Halevi05b}
\citation{EPRINT:Shoup04}
\citation{EPRINT:Shoup04}
\citation{EPRINT:BelRog04}
\citation{EPRINT:Shoup04}
\newlabel{def:Prob}{{3.4}{47}{Game-based proofs}{defn.18}{}}
\@writefile{toc}{\contentsline {subsection}{\numberline {3.4.1}Transition based on indistinguishability}{47}{subsection.3.4.1}\protected@file@percent }
\@writefile{toc}{\contentsline {subsection}{\numberline {3.4.2}Transitions based on failure events}{47}{subsection.3.4.2}\protected@file@percent }
\newlabel{differenceLemma}{{1}{47}{Difference Lemma~\cite {EPRINT:BelRog04, EPRINT:Shoup04}}{theorem.1}{}}
\citation{EPRINT:Halevi05b}
\citation{CCS:ABBBKZ12}
\citation{EPRINT:BarPoiZan12}
\citation{backes2012}
\citation{blanchet08}
\@writefile{toc}{\contentsline {subsection}{\numberline {3.4.3}Bridging step}{48}{subsection.3.4.3}\protected@file@percent }
\citation{CCS:BacMafUnr10}
\citation{JC:BFFMSS19}
\citation{SP:Blanchet06}
\citation{EPRINT:BasLocSef17}
\citation{petcher15}
\citation{EPRINT:BGJZ07}
\citation{C:BGHZ11}
\citation{bartheEC13}
\citation{SP:Blanchet06}
\citation{cade13}
\citation{blanchet17}
\citation{kobeissi17}
\citation{blanchet08}
\@writefile{toc}{\contentsline {section}{\numberline {3.5}Proof-assistants for Cryptography}{49}{section.3.5}\protected@file@percent }
\citation{EPRINT:BasLocSef17}
\citation{lochbihler19}
\citation{FC:Maurer10}
\citation{coq97}
\citation{petcher15}
\citation{EPRINT:BGJZ07}
\citation{EPRINT:BGJZ07}
\citation{C:BGHZ11}
\citation{backes2012}
\citation{CCS:BarGreSch15}
\citation{backes2012}
\citation{bhargavan14}
\citation{barthe14}
\citation{canetti19}
\citation{cortier18}
\citation{hulsing22}
\citation{SaraFran21}
\citation{EPRINT:Halevi05b}
\citation{barthecoupling17}
\@writefile{toc}{\contentsline {section}{\numberline {3.6}\textsf  {EasyCrypt}\xspace  proof assistant}{51}{section.3.6}\protected@file@percent }
\@writefile{toc}{\contentsline {subsubsection}{Probabilistic Relational Hoare Logic (\textsf  {pRHL}\xspace  )}{52}{section*.15}\protected@file@percent }
\newlabel{chap3:prhl}{{3.6}{52}{Probabilistic Relational Hoare Logic (\pRHL )}{section*.15}{}}
\@writefile{toc}{\contentsline {subsubsection}{Probabilistic Hoare Logic (\textsf  {pHL}\xspace  )}{53}{section*.16}\protected@file@percent }
\newlabel{phl}{{3.6}{53}{Probabilistic Hoare Logic (\pHL )}{section*.16}{}}
\@writefile{toc}{\contentsline {subsubsection}{Hoare logic (HL)}{53}{section*.17}\protected@file@percent }
\@writefile{toc}{\contentsline {subsection}{\numberline {3.6.1}A primer on \textsf  {EasyCrypt}\xspace  }{54}{subsection.3.6.1}\protected@file@percent }
\@writefile{toc}{\contentsline {subsection}{\numberline {3.6.2}Input Language}{54}{subsection.3.6.2}\protected@file@percent }
\citation{barthecoupling17}
\@writefile{toc}{\contentsline {subsection}{\numberline {3.6.3}Axioms and Lemmas}{55}{subsection.3.6.3}\protected@file@percent }
\@writefile{toc}{\contentsline {subsection}{\numberline {3.6.4}Game declarations}{56}{subsection.3.6.4}\protected@file@percent }
\@writefile{lol}{\contentsline {lstlisting}{\numberline {3.1}{A module in \textsf  {EasyCrypt}\xspace  }}{56}{lstlisting.3.1}\protected@file@percent }
\newlabel{lst:CDH}{{3.1}{56}{Game declarations}{lstlisting.3.1}{}}
\FN@pp@footnotehinttrue 
\@setckpt{Chapter2/chapter02}{
\setcounter{page}{58}
\setcounter{equation}{0}
\setcounter{enumi}{4}
\setcounter{enumii}{0}
\setcounter{enumiii}{0}
\setcounter{enumiv}{0}
\setcounter{footnote}{0}
\setcounter{mpfootnote}{0}
\setcounter{nag@c}{22}
\setcounter{part}{0}
\setcounter{chapter}{3}
\setcounter{section}{6}
\setcounter{subsection}{4}
\setcounter{subsubsection}{0}
\setcounter{paragraph}{0}
\setcounter{subparagraph}{0}
\setcounter{figure}{2}
\setcounter{table}{0}
\setcounter{AM@survey}{0}
\setcounter{Item}{15}
\setcounter{Hfootnote}{2}
\setcounter{bookmark@seq@number}{0}
\setcounter{pp@next@reset}{3}
\setcounter{@fnserial}{2}
\setcounter{l@yercount}{0}
\setcounter{hdr@segments}{0}
\setcounter{lstnumber}{11}
\setcounter{parentequation}{0}
\setcounter{@pc@global@pc@cnt}{11}
\setcounter{@pc@global@pc@nestcnt}{0}
\setcounter{@spacecounter}{0}
\setcounter{pclinenumber}{0}
\setcounter{Hpclinenumber}{0}
\setcounter{@pclinenumber}{100}
\setcounter{H@pclinenumber}{100}
\setcounter{@pclinenumbertmp}{0}
\setcounter{pcgamecounter}{0}
\setcounter{Hpcgamecounter}{0}
\setcounter{pcrlinenumber}{0}
\setcounter{Hpcrlinenumber}{0}
\setcounter{@pcrlinenumbertmp}{0}
\setcounter{@pc@indentationlevel}{0}
\setcounter{pccolumncounter}{2}
\setcounter{@pc@remember}{0}
\setcounter{@bb@oracle@cnt}{0}
\setcounter{@bb@oracle@nestcnt}{0}
\setcounter{@bb@challenger@cnt}{0}
\setcounter{@bb@challenger@nestcnt}{0}
\setcounter{@bb@env@nestcnt}{0}
\setcounter{@pcsubprogcnt1}{0}
\setcounter{@pcrsubprogcnt1}{0}
\setcounter{@pcsubprogcnt2}{0}
\setcounter{@pcrsubprogcnt2}{0}
\setcounter{@pcsubprogcnt3}{0}
\setcounter{@pcrsubprogcnt3}{0}
\setcounter{@pcsubprogcnt4}{0}
\setcounter{@pcrsubprogcnt4}{0}
\setcounter{@pcsubprogcnt5}{0}
\setcounter{@pcrsubprogcnt5}{0}
\setcounter{@pcsubprogcnt6}{0}
\setcounter{@pcrsubprogcnt6}{0}
\setcounter{@pcsubprogcnt7}{0}
\setcounter{@pcrsubprogcnt7}{0}
\setcounter{@pcsubprogcnt8}{0}
\setcounter{@pcrsubprogcnt8}{0}
\setcounter{@pcsubprogcnt9}{0}
\setcounter{@pcrsubprogcnt9}{0}
\setcounter{@pcsubprogstep}{0}
\setcounter{pcstartgamecounter}{0}
\setcounter{theorem}{1}
\setcounter{defn}{18}
\setcounter{@todonotes@numberoftodonotes}{0}
\setcounter{section@level}{2}
\setcounter{lstlisting}{1}
}
