\relax 
\providecommand\hyper@newdestlabel[2]{}
\FN@pp@footnotehinttrue 
\FN@pp@footnotehinttrue 
\citation{SaraFran21}
\citation{C:ChaPed92}
\citation{CMS:JakSch99}
\citation{EC:GohJar03}
\citation{EC:PoiSte96}
\citation{C:Chevallier-Mames05}
\@writefile{toc}{\contentsline {chapter}{\numberline {4}Machine-Checked verification of \textsf  {EDL}\xspace  and \textsf  {CM}\xspace  Signature Schemes}{59}{chapter.4}\protected@file@percent }
\@writefile{lof}{\addvspace {10\p@ }}
\@writefile{lot}{\addvspace {10\p@ }}
\newlabel{chap:chap02}{{4}{59}{Machine-Checked verification of \EDL and \CM Signature Schemes}{chapter.4}{}}
\@writefile{toc}{\contentsline {section}{\numberline {4.1}Introduction}{59}{section.4.1}\protected@file@percent }
\newlabel{edl+cm:intro}{{4.1}{59}{Introduction}{section.4.1}{}}
\citation{EC:GohJar03}
\citation{C:Chevallier-Mames05}
\citation{EC:GohJar03}
\citation{C:Chevallier-Mames05}
\citation{EPRINT:Shoup04}
\citation{EC:GohJar03}
\citation{C:Chevallier-Mames05}
\citation{EC:Coron02}
\citation{CCS:KatWan03}
\citation{JC:GJKW07}
\citation{EC:Coron02}
\citation{EC:BJLS16}
\@writefile{toc}{\contentsline {subsection}{\numberline {4.1.1}Our Contributions}{60}{subsection.4.1.1}\protected@file@percent }
\FN@pp@footnote@aux{3}{60}
\@writefile{toc}{\contentsline {subsection}{\numberline {4.1.2}Related Work}{60}{subsection.4.1.2}\protected@file@percent }
\citation{CCS:KatWan03}
\citation{CHES:BDFGTZ14}
\citation{EC:Coron02}
\citation{AC:CorMan09}
\citation{PKC:ElKKatPin20}
\citation{AC:CLMPR18}
\citation{AC:BeuKleVer19}
\citation{EC:KilLyuSch18}
\citation{AC:Unruh20}
\citation{C:BGHZ11}
\citation{EC:BCLS15}
\citation{CCS:ABBCCGPPST19}
\citation{POPL:SHKRDF16}
\citation{TDS:Blanchet08}
\citation{EuroSP:LipBlaBha19}
\citation{SP:BhaBlaKob17}
\citation{CSF:Blanchet18}
\citation{EuroSP:KobBhaBla17}
\citation{CSF:Blanchet12}
\citation{EPRINT:ABHKLR20}
\citation{CCS:ABBD13}
\citation{FSE:ABBD16}
\citation{EC:GohJar03}
\@writefile{toc}{\contentsline {section}{\numberline {4.2}Mathematical Preliminaries}{62}{section.4.2}\protected@file@percent }
\FN@pp@footnote@aux{4}{62}
\@writefile{toc}{\contentsline {section}{\numberline {4.3}\textsf  {EDL}\xspace  Signatures and their Security}{62}{section.4.3}\protected@file@percent }
\newlabel{sec:edl}{{4.3}{62}{\EDL Signatures and their Security}{section.4.3}{}}
\@writefile{lof}{\contentsline {figure}{\numberline {4.1}{\ignorespaces The \textsf  {EDL}\xspace  signature scheme, parameterized by two random oracles \(\EuScript  {H}\xspace   : \EuScript  {M}\times \EuScript  {N}\rightarrow \mathbb  {G}\) and \(\EuScript  {G}\xspace   : \mathbb  {G}^6 \rightarrow \F \).}}{63}{figure.4.1}\protected@file@percent }
\newlabel{fig:edl}{{4.1}{63}{The \EDL signature scheme, parameterized by two random oracles \(\scheme {H} : \msgs \times \rnds \rightarrow \G \) and \(\scheme {G} : \G ^6 \rightarrow \F \)}{figure.4.1}{}}
\newlabel{thm:edl-security}{{2}{63}{Security of \EDL }{theorem.2}{}}
\@writefile{lof}{\contentsline {figure}{\numberline {4.2}{\ignorespaces The reduction \(\ensuremath  {\EuScript  {A}}\) from \textsf  {CDH}\xspace  . \(\ensuremath  {\EuScript  {A}}^{\EuScript  {F}}_{\mathbb  {G},g,q}\) uses an \textsf  {EUF\textrm  {-}CMA}\xspace  forger \(\EuScript  {F}\) as a black-box, and internally simulates \(\EuScript  {H}\xspace  \) and \(\EuScript  {G}\xspace  \). \(\mathsf  {H}\) keeps track of both the response \(\mathsf  {h}\) and i. its discrete logarithm in base \(g\) (for queries made by the signing oracle), or ii. the unique value \(\mathsf  {d} \in \F \) such that \(\mathsf  {h} = \mathsf  {g_b}g^{\mathsf  {d}}\) (for queries made by the forger). \(\pi _1\) and \(\pi _2\) are the first and second projections on pairs.}}{64}{figure.4.2}\protected@file@percent }
\newlabel{fig:cdh-reduction}{{4.2}{64}{The reduction \(\adv \) from \CDH . \(\adv ^{\fdv }_{\G ,g,q}\) uses an \EUFCMA forger \(\fdv \) as a black-box, and internally simulates \(\scheme {H}\) and \(\scheme {G}\). \(\var {H}\) keeps track of both the response \(\var {h}\) and i. its discrete logarithm in base \(g\) (for queries made by the signing oracle), or ii. the unique value \(\var {d} \in \F \) such that \(\var {h} = \var {g_b}g^{\var {d}}\) (for queries made by the forger). \(\pi _1\) and \(\pi _2\) are the first and second projections on pairs}{figure.4.2}{}}
\newlabel{lin:edl-cutoff}{{6}{64}{\EDL Signatures and their Security}{@pclinenumber.291}{}}
\@writefile{lof}{\contentsline {figure}{\numberline {4.3}{\ignorespaces The \textsf  {EDL}\xspace  proof shim.}}{64}{figure.4.3}\protected@file@percent }
\newlabel{fig:edlgame}{{4.3}{64}{The \EDL proof shim}{figure.4.3}{}}
\citation{EC:GohJar03}
\@writefile{toc}{\contentsline {subsection}{\numberline {4.3.1}Intuition}{65}{subsection.4.3.1}\protected@file@percent }
\newlabel{ssec:edl-intuition}{{4.3.1}{65}{Intuition}{subsection.4.3.1}{}}
\@writefile{toc}{\contentsline {subsection}{\numberline {4.3.2}Formalisation}{66}{subsection.4.3.2}\protected@file@percent }
\newlabel{ssec:edl-formalisation}{{4.3.2}{66}{Formalisation}{subsection.4.3.2}{}}
\@writefile{lof}{\contentsline {figure}{\numberline {4.4}{\ignorespaces Oracle simulations for use in intermediate steps in the security proof for EDL signatures. Lemmas\nobreakspace  {}\ref  {lem:edl-refactoring} and\nobreakspace  {}\ref  {lem:edl-embedding} use \(\mathsf  {Game}^{\textsf  {EDL}\xspace  }_{0}({\EuScript  {F}})\mathrel {:=}\mathsf  {Game}^{\textsf  {EDL}\xspace  }_{\EuScript  {H}\xspace  ,\EuScript  {G}\xspace  ,\EuScript  {S}\xspace  _0,\EuScript  {F}}({})\). Lemmas\nobreakspace  {}\ref  {lem:edl-embedding} and\nobreakspace  {}\ref  {lem:edl-simulation} use \(\mathsf  {Game}^{\textsf  {EDL}\xspace  }_{1}({\EuScript  {F}})\mathrel {:=}\mathsf  {Game}^{\textsf  {EDL}\xspace  }_{\EuScript  {H}\xspace  ',\EuScript  {G}\xspace  ,\EuScript  {S}\xspace  _1,\EuScript  {F}}({})\). Lemmas\nobreakspace  {}\ref  {lem:edl-simulation} and\nobreakspace  {}\ref  {lem:edl-reduction} use \(\mathsf  {Game}^{\textsf  {EDL}\xspace  }_{2}({\EuScript  {F}})\mathrel {:=}\mathsf  {Game}^{\textsf  {EDL}\xspace  }_{\EuScript  {H}\xspace  ',\EuScript  {G}\xspace  ,\EuScript  {S}\xspace  _2,\EuScript  {F}}({})\).  }}{67}{figure.4.4}\protected@file@percent }
\newlabel{fig:edlgame0}{{4.4}{67}{Oracle simulations for use in intermediate steps in the security proof for EDL signatures. Lemmas~\ref {lem:edl-refactoring} and~\ref {lem:edl-embedding} use \(\Game {\EDL }{0}{\fdv }\eqdef \Game {\EDL }{\scheme {H},\scheme {G},\scheme {S}_0,\fdv }{}\). Lemmas~\ref {lem:edl-embedding} and~\ref {lem:edl-simulation} use \(\Game {\EDL }{1}{\fdv }\eqdef \Game {\EDL }{\scheme {H}',\scheme {G},\scheme {S}_1,\fdv }{}\). Lemmas~\ref {lem:edl-simulation} and~\ref {lem:edl-reduction} use \(\Game {\EDL }{2}{\fdv }\eqdef \Game {\EDL }{\scheme {H}',\scheme {G},\scheme {S}_2,\fdv }{}\)}{figure.4.4}{}}
\newlabel{fig:edlgame1}{{4.4}{67}{Oracle simulations for use in intermediate steps in the security proof for EDL signatures. Lemmas~\ref {lem:edl-refactoring} and~\ref {lem:edl-embedding} use \(\Game {\EDL }{0}{\fdv }\eqdef \Game {\EDL }{\scheme {H},\scheme {G},\scheme {S}_0,\fdv }{}\). Lemmas~\ref {lem:edl-embedding} and~\ref {lem:edl-simulation} use \(\Game {\EDL }{1}{\fdv }\eqdef \Game {\EDL }{\scheme {H}',\scheme {G},\scheme {S}_1,\fdv }{}\). Lemmas~\ref {lem:edl-simulation} and~\ref {lem:edl-reduction} use \(\Game {\EDL }{2}{\fdv }\eqdef \Game {\EDL }{\scheme {H}',\scheme {G},\scheme {S}_2,\fdv }{}\)}{figure.4.4}{}}
\newlabel{fig:edlgame2}{{4.4}{67}{Oracle simulations for use in intermediate steps in the security proof for EDL signatures. Lemmas~\ref {lem:edl-refactoring} and~\ref {lem:edl-embedding} use \(\Game {\EDL }{0}{\fdv }\eqdef \Game {\EDL }{\scheme {H},\scheme {G},\scheme {S}_0,\fdv }{}\). Lemmas~\ref {lem:edl-embedding} and~\ref {lem:edl-simulation} use \(\Game {\EDL }{1}{\fdv }\eqdef \Game {\EDL }{\scheme {H}',\scheme {G},\scheme {S}_1,\fdv }{}\). Lemmas~\ref {lem:edl-simulation} and~\ref {lem:edl-reduction} use \(\Game {\EDL }{2}{\fdv }\eqdef \Game {\EDL }{\scheme {H}',\scheme {G},\scheme {S}_2,\fdv }{}\)}{figure.4.4}{}}
\@writefile{toc}{\contentsline {subsubsection}{Refactoring}{67}{section*.20}\protected@file@percent }
\newlabel{lem:edl-refactoring}{{3}{67}{\EDL Refactoring}{theorem.3}{}}
\@writefile{toc}{\contentsline {subsubsection}{Embedding}{68}{section*.21}\protected@file@percent }
\newlabel{lem:edl-embedding}{{4}{68}{\EDL Embedding}{theorem.4}{}}
\@writefile{toc}{\contentsline {subsubsection}{Simulation}{69}{section*.22}\protected@file@percent }
\newlabel{lem:edl-simulation}{{5}{70}{\EDL Simulation}{theorem.5}{}}
\@writefile{toc}{\contentsline {subsubsection}{Reduction}{72}{section*.23}\protected@file@percent }
\newlabel{lem:edl-reduction-a}{{6}{72}{$\chall {z} \neq \var {h}^{\var {sk}}$}{theorem.6}{}}
\newlabel{lem:edl-reduction}{{7}{72}{\EDL Reduction}{theorem.7}{}}
\@writefile{lof}{\contentsline {figure}{\numberline {4.5}{\ignorespaces The \textsf  {CM}\xspace  signature scheme, parameterized by two random oracles \(\EuScript  {H}\xspace  :\mathbb  {G}\rightarrow \mathbb  {G}\) and \(\EuScript  {G}\xspace  :\EuScript  {M}\times \mathbb  {G}^6\rightarrow \F \).}}{74}{figure.4.5}\protected@file@percent }
\newlabel{fig:cm}{{4.5}{74}{The \CM signature scheme, parameterized by two random oracles \(\scheme {H}:\G \rightarrow \G \) and \(\scheme {G}:\msgs \times \G ^6\rightarrow \F \)}{figure.4.5}{}}
\@writefile{toc}{\contentsline {section}{\numberline {4.4}\textsf  {CM}\xspace  Signatures and their Security}{74}{section.4.4}\protected@file@percent }
\newlabel{sec:cm}{{4.4}{74}{\CM Signatures and their Security}{section.4.4}{}}
\citation{C:Chevallier-Mames05}
\newlabel{thm:cm-security}{{8}{75}{Security of \CM }{theorem.8}{}}
\@writefile{lof}{\contentsline {figure}{\numberline {4.6}{\ignorespaces The reduction \(\ensuremath  {\EuScript  {A}}\) to \textsf  {CDH}\xspace  . \(\ensuremath  {\EuScript  {A}}\) uses an \textsf  {EUF\textrm  {-}CMA}\xspace  forger \(\EuScript  {F}\) as a black-box, and internally simulates \(\EuScript  {H}\xspace  \) and \(\EuScript  {G}\xspace  \) through initially empty finite maps \(\mathsf  {H}\) and \(\mathsf  {G}\). \(\mathsf  {H}\) keeps track of both the response \(\mathsf  {h}\) and the random exponents \(\mathsf  {s}\) and \(\mathsf  {c}\) used in the related signature (for queries made by the signing oracle), or the value \(\qopname  \relax o{log}_{g} (\mathsf  {h} \cdot \mathsf  {g}_{\mathsf  {b}}^{-1})\) (for direct queries). \(\pi _1\) and \(\pi _2\) are the first and second projections on pairs. }}{76}{figure.4.6}\protected@file@percent }
\newlabel{fig:cm-reduction}{{4.6}{76}{The reduction \(\adv \) to \CDH . \(\adv \) uses an \EUFCMA forger \(\fdv \) as a black-box, and internally simulates \(\scheme {H}\) and \(\scheme {G}\) through initially empty finite maps \(\var {H}\) and \(\var {G}\). \(\var {H}\) keeps track of both the response \(\var {h}\) and the random exponents \(\var {s}\) and \(\var {c}\) used in the related signature (for queries made by the signing oracle), or the value \(\log _{g} (\var {h} \cdot \var {g}_{\var {b}}^{-1})\) (for direct queries). \(\pi _1\) and \(\pi _2\) are the first and second projections on pairs}{figure.4.6}{}}
\@writefile{lof}{\contentsline {figure}{\numberline {4.7}{\ignorespaces The \(\mathsf  {Game}^{\textsf  {CM}\xspace  }_{\cdot ,\cdot ,\cdot ,\cdot }({})\) shim used in the security proof for \textsf  {CM}\xspace  . We use a dashed box to isolate code that serves as the core of the reduction (Figure\nobreakspace  {}\ref  {fig:cm-reduction}).}}{76}{figure.4.7}\protected@file@percent }
\newlabel{fig:cm-game}{{4.7}{76}{The \(\Game {\CM }{\cdot ,\cdot ,\cdot ,\cdot }{}\) shim used in the security proof for \CM . We use a dashed box to isolate code that serves as the core of the reduction (Figure~\ref {fig:cm-reduction})}{figure.4.7}{}}
\@writefile{toc}{\contentsline {subsection}{\numberline {4.4.1}Proof Overview}{77}{subsection.4.4.1}\protected@file@percent }
\@writefile{toc}{\contentsline {subsection}{\numberline {4.4.2}Formalisation}{78}{subsection.4.4.2}\protected@file@percent }
\@writefile{toc}{\contentsline {subsubsection}{Step 0 — Embedding}{78}{section*.24}\protected@file@percent }
\newlabel{lem:cm-embedding}{{9}{78}{\CM Embedding}{theorem.9}{}}
\@writefile{lof}{\contentsline {figure}{\numberline {4.8}{\ignorespaces Oracle simulations for use in intermediate steps in the security proof for Chevallier-Mames signatures. Lemmas\nobreakspace  {}\ref  {lem:cm-embedding} and\nobreakspace  {}\ref  {lem:cm-simulation} use \(\mathsf  {Game}^{\textsf  {CM}\xspace  }_{1}({\EuScript  {F}})\mathrel {:=}\mathsf  {Game}^{\textsf  {CM}\xspace  }_{\EuScript  {H}\xspace  ',\EuScript  {G}\xspace  ,\EuScript  {S}\xspace  _1,\EuScript  {F}}({})\). Lemmas\nobreakspace  {}\ref  {lem:cm-simulation} and\nobreakspace  {}\ref  {lem:cm-reduction} use \(\mathsf  {Game}^{\textsf  {CM}\xspace  }_{2}({\EuScript  {F}})\mathrel {:=}\mathsf  {Game}^{\textsf  {CM}\xspace  }_{\EuScript  {H}\xspace  ',\EuScript  {G}\xspace  ',\EuScript  {S}\xspace  _2,\EuScript  {F}}({})\).}}{79}{figure.4.8}\protected@file@percent }
\newlabel{fig:cm-oracles}{{4.8}{79}{Oracle simulations for use in intermediate steps in the security proof for Chevallier-Mames signatures. Lemmas~\ref {lem:cm-embedding} and~\ref {lem:cm-simulation} use \(\Game {\CM }{1}{\fdv }\eqdef \Game {\CM }{\scheme {H}',\scheme {G},\scheme {S}_1,\fdv }{}\). Lemmas~\ref {lem:cm-simulation} and~\ref {lem:cm-reduction} use \(\Game {\CM }{2}{\fdv }\eqdef \Game {\CM }{\scheme {H}',\scheme {G}',\scheme {S}_2,\fdv }{}\)}{figure.4.8}{}}
\newlabel{fig:cm-refactoring}{{4.8}{79}{Oracle simulations for use in intermediate steps in the security proof for Chevallier-Mames signatures. Lemmas~\ref {lem:cm-embedding} and~\ref {lem:cm-simulation} use \(\Game {\CM }{1}{\fdv }\eqdef \Game {\CM }{\scheme {H}',\scheme {G},\scheme {S}_1,\fdv }{}\). Lemmas~\ref {lem:cm-simulation} and~\ref {lem:cm-reduction} use \(\Game {\CM }{2}{\fdv }\eqdef \Game {\CM }{\scheme {H}',\scheme {G}',\scheme {S}_2,\fdv }{}\)}{figure.4.8}{}}
\newlabel{fig:cm-embedding}{{4.8}{79}{Oracle simulations for use in intermediate steps in the security proof for Chevallier-Mames signatures. Lemmas~\ref {lem:cm-embedding} and~\ref {lem:cm-simulation} use \(\Game {\CM }{1}{\fdv }\eqdef \Game {\CM }{\scheme {H}',\scheme {G},\scheme {S}_1,\fdv }{}\). Lemmas~\ref {lem:cm-simulation} and~\ref {lem:cm-reduction} use \(\Game {\CM }{2}{\fdv }\eqdef \Game {\CM }{\scheme {H}',\scheme {G}',\scheme {S}_2,\fdv }{}\)}{figure.4.8}{}}
\newlabel{fig:cm-simulation}{{4.8}{79}{Oracle simulations for use in intermediate steps in the security proof for Chevallier-Mames signatures. Lemmas~\ref {lem:cm-embedding} and~\ref {lem:cm-simulation} use \(\Game {\CM }{1}{\fdv }\eqdef \Game {\CM }{\scheme {H}',\scheme {G},\scheme {S}_1,\fdv }{}\). Lemmas~\ref {lem:cm-simulation} and~\ref {lem:cm-reduction} use \(\Game {\CM }{2}{\fdv }\eqdef \Game {\CM }{\scheme {H}',\scheme {G}',\scheme {S}_2,\fdv }{}\)}{figure.4.8}{}}
\@writefile{toc}{\contentsline {subsubsection}{Step 0 — Simulation}{80}{section*.25}\protected@file@percent }
\newlabel{lem:cm-simulation}{{10}{80}{\CM Simulation}{theorem.10}{}}
\@writefile{toc}{\contentsline {subsubsection}{Step 0 — Reduction}{80}{section*.26}\protected@file@percent }
\newlabel{lem:cm-unsound}{{11}{80}{}{theorem.11}{}}
\newlabel{lem:cm-collision}{{12}{81}{}{theorem.12}{}}
\newlabel{lem:cm-reduction}{{13}{81}{\CM Reduction}{theorem.13}{}}
\citation{FOSAD:BDGKSS14}
\citation{EC:GohJar03}
\@writefile{toc}{\contentsline {section}{\numberline {4.5}Conclusion}{84}{section.4.5}\protected@file@percent }
\newlabel{sec:generalization}{{4.5}{84}{Conclusion}{section.4.5}{}}
\citation{CSF:BGJKS19}
\citation{C:Chevallier-Mames05}
\@writefile{toc}{\contentsline {section}{\numberline {4.6}Further Generalisations}{86}{section.4.6}\protected@file@percent }
\newlabel{sec:furtherGen}{{4.6}{86}{Further Generalisations}{section.4.6}{}}
\FN@pp@footnotehinttrue 
\@setckpt{Chapter2/chapter2}{
\setcounter{page}{88}
\setcounter{equation}{0}
\setcounter{enumi}{2}
\setcounter{enumii}{0}
\setcounter{enumiii}{0}
\setcounter{enumiv}{0}
\setcounter{footnote}{0}
\setcounter{mpfootnote}{0}
\setcounter{nag@c}{22}
\setcounter{part}{0}
\setcounter{chapter}{4}
\setcounter{section}{6}
\setcounter{subsection}{0}
\setcounter{subsubsection}{0}
\setcounter{paragraph}{0}
\setcounter{subparagraph}{0}
\setcounter{figure}{8}
\setcounter{table}{0}
\setcounter{AM@survey}{0}
\setcounter{Item}{31}
\setcounter{Hfootnote}{4}
\setcounter{bookmark@seq@number}{0}
\setcounter{pp@next@reset}{5}
\setcounter{@fnserial}{4}
\setcounter{l@yercount}{0}
\setcounter{hdr@segments}{1}
\setcounter{lstnumber}{11}
\setcounter{parentequation}{0}
\setcounter{@pc@global@pc@cnt}{98}
\setcounter{@pc@global@pc@nestcnt}{0}
\setcounter{@spacecounter}{0}
\setcounter{pclinenumber}{0}
\setcounter{Hpclinenumber}{20}
\setcounter{@pclinenumber}{778}
\setcounter{H@pclinenumber}{778}
\setcounter{@pclinenumbertmp}{0}
\setcounter{pcgamecounter}{0}
\setcounter{Hpcgamecounter}{0}
\setcounter{pcrlinenumber}{0}
\setcounter{Hpcrlinenumber}{0}
\setcounter{@pcrlinenumbertmp}{0}
\setcounter{@pc@indentationlevel}{0}
\setcounter{pccolumncounter}{2}
\setcounter{@pc@remember}{0}
\setcounter{@bb@oracle@cnt}{0}
\setcounter{@bb@oracle@nestcnt}{0}
\setcounter{@bb@challenger@cnt}{0}
\setcounter{@bb@challenger@nestcnt}{0}
\setcounter{@bb@env@nestcnt}{0}
\setcounter{@pcsubprogcnt1}{0}
\setcounter{@pcrsubprogcnt1}{0}
\setcounter{@pcsubprogcnt2}{0}
\setcounter{@pcrsubprogcnt2}{0}
\setcounter{@pcsubprogcnt3}{0}
\setcounter{@pcrsubprogcnt3}{0}
\setcounter{@pcsubprogcnt4}{0}
\setcounter{@pcrsubprogcnt4}{0}
\setcounter{@pcsubprogcnt5}{0}
\setcounter{@pcrsubprogcnt5}{0}
\setcounter{@pcsubprogcnt6}{0}
\setcounter{@pcrsubprogcnt6}{0}
\setcounter{@pcsubprogcnt7}{0}
\setcounter{@pcrsubprogcnt7}{0}
\setcounter{@pcsubprogcnt8}{0}
\setcounter{@pcrsubprogcnt8}{0}
\setcounter{@pcsubprogcnt9}{0}
\setcounter{@pcrsubprogcnt9}{0}
\setcounter{@pcsubprogstep}{0}
\setcounter{pcstartgamecounter}{0}
\setcounter{theorem}{13}
\setcounter{defn}{18}
\setcounter{@todonotes@numberoftodonotes}{0}
\setcounter{section@level}{1}
\setcounter{lstlisting}{0}
}
