\relax 
\providecommand\hyper@newdestlabel[2]{}
\FN@pp@footnotehinttrue 
\FN@pp@footnotehinttrue 
\@writefile{toc}{\contentsline {chapter}{\numberline {2}Digital Signature Schemes}{7}{chapter.2}\protected@file@percent }
\@writefile{lof}{\addvspace {10\p@ }}
\@writefile{lot}{\addvspace {10\p@ }}
\newlabel{chap:chap01}{{2}{7}{Digital Signature Schemes}{chapter.2}{}}
\@writefile{toc}{\contentsline {section}{\numberline {2.1}Introduction}{7}{section.2.1}\protected@file@percent }
\citation{DifHel76}
\citation{GolMicRiv88}
\@writefile{toc}{\contentsline {section}{\numberline {2.2}Digital Signatures}{8}{section.2.2}\protected@file@percent }
\@writefile{lof}{\contentsline {figure}{\numberline {2.1}{\ignorespaces The private key signs a message, and the corresponding public key verifies the signature}}{9}{figure.2.1}\protected@file@percent }
\newlabel{fig:Digital signature}{{2.1}{9}{The private key signs a message, and the corresponding public key verifies the signature}{figure.2.1}{}}
\citation{guo18}
\@writefile{toc}{\contentsline {subsection}{\numberline {2.2.1}Mathematical Primitives}{10}{subsection.2.2.1}\protected@file@percent }
\@writefile{toc}{\contentsline {subsubsection}{Computation over Prime Field}{10}{section*.6}\protected@file@percent }
\@writefile{toc}{\contentsline {subsubsection}{Cyclic Group}{11}{section*.7}\protected@file@percent }
\@writefile{toc}{\contentsline {subsection}{\numberline {2.2.2}RSA signatures}{11}{subsection.2.2.2}\protected@file@percent }
\citation{extendedRSA02}
\@writefile{lof}{\contentsline {figure}{\numberline {2.2}{\ignorespaces Plain RSA signature scheme}}{12}{figure.2.2}\protected@file@percent }
\newlabel{fig:PlainRSA}{{2.2}{12}{Plain RSA signature scheme}{figure.2.2}{}}
\@writefile{toc}{\contentsline {subsection}{\numberline {2.2.3}Plain RSA}{12}{subsection.2.2.3}\protected@file@percent }
\citation{bos92}
\citation{guo22}
\citation{bleichenbacher96}
\@writefile{toc}{\contentsline {subsection}{\numberline {2.2.4}Signatures from Hash Functions}{13}{subsection.2.2.4}\protected@file@percent }
\@writefile{toc}{\contentsline {section}{\numberline {2.3}Exploring Cryptographic Concepts}{13}{section.2.3}\protected@file@percent }
\@writefile{toc}{\contentsline {subsection}{\numberline {2.3.1}Hash Function}{13}{subsection.2.3.1}\protected@file@percent }
\@writefile{toc}{\contentsline {subsection}{\numberline {2.3.2}Random Oracle model (ROM)}{14}{subsection.2.3.2}\protected@file@percent }
\newlabel{sec:ROM}{{2.3.2}{14}{Random Oracle model (ROM)}{subsection.2.3.2}{}}
\citation{EPRINT:MicRey99}
\citation{console10}
\@writefile{toc}{\contentsline {subsection}{\numberline {2.3.3}Distinguishing the Given Scheme}{16}{subsection.2.3.3}\protected@file@percent }
\@writefile{toc}{\contentsline {subsubsection}{Randomness}{16}{section*.8}\protected@file@percent }
\citation{GolMicRiv88}
\citation{GolMicRiv19}
\@writefile{toc}{\contentsline {subsection}{\numberline {2.3.4}Discrete-Logarithm}{17}{subsection.2.3.4}\protected@file@percent }
\citation{CCS:BelRog93}
\citation{JC:Schnorr91}
\citation{C:ChaPed92}
\citation{EC:GohJar03}
\citation{ElGamal85}
\citation{JC:PoiSte00}
\citation{EC:Girault90}
\citation{EC:PouSte98}
\citation{JC:Schnorr91}
\citation{TilCAJaSu14}
\citation{FiAmShAd86}
\citation{EC:PoiSte96}
\@writefile{toc}{\contentsline {subsection}{\numberline {2.3.5}The Schnorr Signature Scheme}{18}{subsection.2.3.5}\protected@file@percent }
\citation{FiAmShAd86}
\citation{GoShMiSiRaCh89}
\citation{GoShMiSiRaCh89}
\citation{SP:CCDLNU17}
\citation{C:BelKilRog94}
\citation{EPRINT:Patel14}
\@writefile{lof}{\contentsline {figure}{\numberline {2.3}{\ignorespaces Schnorr Signature Scheme}}{19}{figure.2.3}\protected@file@percent }
\newlabel{fig:SchnorrSS}{{2.3}{19}{Schnorr Signature Scheme}{figure.2.3}{}}
\@writefile{toc}{\contentsline {subsection}{\numberline {2.3.6}Schnorr Identification Scheme}{19}{subsection.2.3.6}\protected@file@percent }
\citation{GoShMiSiRaCh89}
\citation{GoShMiSiRaCh89}
\@writefile{lof}{\contentsline {figure}{\numberline {2.4}{\ignorespaces Schnorr Identification Scheme}}{20}{figure.2.4}\protected@file@percent }
\newlabel{fig:SIscheme}{{2.4}{20}{Schnorr Identification Scheme}{figure.2.4}{}}
\@writefile{lof}{\contentsline {figure}{\numberline {2.5}{\ignorespaces Non-interactive Schnorr}}{20}{figure.2.5}\protected@file@percent }
\newlabel{fig:NIschnorr}{{2.5}{20}{Non-interactive Schnorr}{figure.2.5}{}}
\@writefile{toc}{\contentsline {subsection}{\numberline {2.3.7}Zero-Knowledge Proofs (ZKPs)}{20}{subsection.2.3.7}\protected@file@percent }
\citation{STOC:BluFelMic88}
\@writefile{toc}{\contentsline {section}{\numberline {2.4}Background Definitions}{28}{section.2.4}\protected@file@percent }
\citation{EPRINT:Shoup04}
\@writefile{toc}{\contentsline {subsubsection}{Code-Based Game-Playing Proofs and Exact Security}{29}{section*.9}\protected@file@percent }
\citation{FOSAD:BDGKSS14}
\@writefile{toc}{\contentsline {subsubsection}{\textsf  {EasyCrypt}\xspace  }{30}{section*.10}\protected@file@percent }
\FN@pp@footnote@aux{1}{30}
\@writefile{toc}{\contentsline {subsubsection}{\textsf  {pRHL}\xspace  Judgments}{30}{section*.11}\protected@file@percent }
\citation{POPL:BGZ09}
\newlabel{sec:bad-left}{{2.4}{31}{\pRHL for equivalence up to failure}{section*.12}{}}
\FN@pp@footnote@aux{2}{31}
\@writefile{toc}{\contentsline {subsubsection}{\textsf  {pHL}\xspace  Judgments}{31}{section*.13}\protected@file@percent }
\citation{SaraFran21}
\@writefile{toc}{\contentsline {subsection}{\numberline {2.4.1}The Computational Diffie-Hellman Assumption}{32}{subsection.2.4.1}\protected@file@percent }
\@writefile{lof}{\contentsline {figure}{\numberline {2.6}{\ignorespaces The \textsf  {CDH}\xspace  experiment.}}{33}{figure.2.6}\protected@file@percent }
\newlabel{fig:cdh}{{2.6}{33}{The \CDH experiment}{figure.2.6}{}}
\@writefile{lof}{\contentsline {figure}{\numberline {2.7}{\ignorespaces The \textsf  {EUF\textrm  {-}CMA}\xspace  experiment.}}{33}{figure.2.7}\protected@file@percent }
\newlabel{fig:euf-cma}{{2.7}{33}{The \EUFCMA experiment}{figure.2.7}{}}
\@writefile{lof}{\contentsline {figure}{\numberline {2.8}{\ignorespaces A Random Oracle that lazily samples its responses from some distribution $d$. $\mathsf  {H}$ is a map or association list, initially empty.}}{33}{figure.2.8}\protected@file@percent }
\newlabel{fig:ro}{{2.8}{33}{A Random Oracle that lazily samples its responses from some distribution $d$. $\var {H}$ is a map or association list, initially empty}{figure.2.8}{}}
\@writefile{toc}{\contentsline {subsection}{\numberline {2.4.2}Signature Scheme}{33}{subsection.2.4.2}\protected@file@percent }
\newlabel{def:Sig}{{14}{33}{}{defn.14}{}}
\newlabel{def:adv-cma}{{15}{34}{\EUFCMA advantage}{defn.15}{}}
\citation{CCS:BelRog93}
\newlabel{def:euf-cma}{{16}{35}{\EUFCMA security}{defn.16}{}}
\@writefile{toc}{\contentsline {subsection}{\numberline {2.4.3}\textsf  {EUF\textrm  {-}CMA}\xspace  security in the ROM}{35}{subsection.2.4.3}\protected@file@percent }
\newlabel{ss:rom}{{2.4.3}{35}{\EUFCMA security in the ROM}{subsection.2.4.3}{}}
\newlabel{def:euf-cma-2ro}{{17}{35}{\EUFCMA security in the ROM}{defn.17}{}}
\citation{camenisch02}
\citation{camenisch04}
\citation{cramer96}
\citation{dwork94}
\citation{boneh01}
\citation{girault91}
\citation{guillou88}
\citation{poupard98}
\citation{zhang04}
\citation{rivest78}
\citation{cramer02}
\citation{gennaro99}
\citation{rivest78}
\citation{EC:BelRog96}
\citation{boneh01}
\@writefile{lof}{\contentsline {figure}{\numberline {2.9}{\ignorespaces \textsf  {EUF\textrm  {-}CMA}\xspace  with two Random Oracles \(\EuScript  {H}\xspace  \) and \(\EuScript  {G}\xspace  \).}}{36}{figure.2.9}\protected@file@percent }
\newlabel{fig:euf-cma-2ro}{{2.9}{36}{\EUFCMA with two Random Oracles \(\scheme {H}\) and \(\scheme {G}\)}{figure.2.9}{}}
\@writefile{toc}{\contentsline {section}{\numberline {2.5}Discussion}{36}{section.2.5}\protected@file@percent }
\citation{DifHel76}
\citation{Boneh98}
\citation{maurdiffie}
\citation{Boneh98}
\citation{maurdiffie}
\citation{EC:Shoup97}
\citation{EC:Shoup97}
\citation{JC:Schnorr91}
\citation{daley02}
\citation{elgamal1985}
\citation{EC:GohJar03}
\citation{C:Chevallier-Mames05}
\citation{CCS:KatWan03}
\citation{EPRINT:JouNgu01}
\citation{JC:GJKW07}
\FN@pp@footnotehinttrue 
\@setckpt{Chapter1/chapter1}{
\setcounter{page}{39}
\setcounter{equation}{0}
\setcounter{enumi}{3}
\setcounter{enumii}{0}
\setcounter{enumiii}{0}
\setcounter{enumiv}{0}
\setcounter{footnote}{0}
\setcounter{mpfootnote}{0}
\setcounter{nag@c}{22}
\setcounter{part}{0}
\setcounter{chapter}{2}
\setcounter{section}{5}
\setcounter{subsection}{0}
\setcounter{subsubsection}{0}
\setcounter{paragraph}{0}
\setcounter{subparagraph}{0}
\setcounter{figure}{9}
\setcounter{table}{0}
\setcounter{AM@survey}{0}
\setcounter{Item}{6}
\setcounter{Hfootnote}{2}
\setcounter{bookmark@seq@number}{0}
\setcounter{pp@next@reset}{3}
\setcounter{@fnserial}{2}
\setcounter{l@yercount}{0}
\setcounter{hdr@segments}{0}
\setcounter{lstnumber}{1}
\setcounter{parentequation}{0}
\setcounter{@pc@global@pc@cnt}{8}
\setcounter{@pc@global@pc@nestcnt}{0}
\setcounter{@spacecounter}{0}
\setcounter{pclinenumber}{0}
\setcounter{Hpclinenumber}{0}
\setcounter{@pclinenumber}{84}
\setcounter{H@pclinenumber}{84}
\setcounter{@pclinenumbertmp}{0}
\setcounter{pcgamecounter}{0}
\setcounter{Hpcgamecounter}{0}
\setcounter{pcrlinenumber}{0}
\setcounter{Hpcrlinenumber}{0}
\setcounter{@pcrlinenumbertmp}{0}
\setcounter{@pc@indentationlevel}{0}
\setcounter{pccolumncounter}{2}
\setcounter{@pc@remember}{0}
\setcounter{@bb@oracle@cnt}{0}
\setcounter{@bb@oracle@nestcnt}{0}
\setcounter{@bb@challenger@cnt}{0}
\setcounter{@bb@challenger@nestcnt}{0}
\setcounter{@bb@env@nestcnt}{0}
\setcounter{@pcsubprogcnt1}{0}
\setcounter{@pcrsubprogcnt1}{0}
\setcounter{@pcsubprogcnt2}{0}
\setcounter{@pcrsubprogcnt2}{0}
\setcounter{@pcsubprogcnt3}{0}
\setcounter{@pcrsubprogcnt3}{0}
\setcounter{@pcsubprogcnt4}{0}
\setcounter{@pcrsubprogcnt4}{0}
\setcounter{@pcsubprogcnt5}{0}
\setcounter{@pcrsubprogcnt5}{0}
\setcounter{@pcsubprogcnt6}{0}
\setcounter{@pcrsubprogcnt6}{0}
\setcounter{@pcsubprogcnt7}{0}
\setcounter{@pcrsubprogcnt7}{0}
\setcounter{@pcsubprogcnt8}{0}
\setcounter{@pcrsubprogcnt8}{0}
\setcounter{@pcsubprogcnt9}{0}
\setcounter{@pcrsubprogcnt9}{0}
\setcounter{@pcsubprogstep}{0}
\setcounter{pcstartgamecounter}{0}
\setcounter{theorem}{0}
\setcounter{defn}{17}
\setcounter{@todonotes@numberoftodonotes}{0}
\setcounter{section@level}{1}
\setcounter{lstlisting}{0}
}
